Traceback (most recent call last):
  File "manage.py", line 22, in <module>
    execute_from_command_line(sys.argv)
  File "/Library/Frameworks/Python.framework/Versions/3.6/lib/python3.6/site-packages/django/core/management/__init__.py", line 363, in execute_from_command_line
    utility.execute()
  File "/Library/Frameworks/Python.framework/Versions/3.6/lib/python3.6/site-packages/django/core/management/__init__.py", line 317, in execute
    autoreload.check_errors(django.setup)()
  File "/Library/Frameworks/Python.framework/Versions/3.6/lib/python3.6/site-packages/django/utils/autoreload.py", line 228, in wrapper
    fn(*args, **kwargs)
  File "/Library/Frameworks/Python.framework/Versions/3.6/lib/python3.6/site-packages/django/__init__.py", line 20, in setup
    from django.utils.log import configure_logging
  File "/Library/Frameworks/Python.framework/Versions/3.6/lib/python3.6/site-packages/django/utils/log.py", line 8, in <module>
    from django.core import mail
  File "/Library/Frameworks/Python.framework/Versions/3.6/lib/python3.6/site-packages/django/core/mail/__init__.py", line 11, in <module>
    from django.core.mail.message import (
  File "/Library/Frameworks/Python.framework/Versions/3.6/lib/python3.6/site-packages/django/core/mail/message.py", line 12, in <module>
    from email.mime.base import MIMEBase
  File "<frozen importlib._bootstrap>", line 961, in _find_and_load
  File "<frozen importlib._bootstrap>", line 946, in _find_and_load_unlocked
  File "<frozen importlib._bootstrap>", line 885, in _find_spec
  File "<frozen importlib._bootstrap_external>", line 1157, in find_spec
  File "<frozen importlib._bootstrap_external>", line 1129, in _get_spec
  File "<frozen importlib._bootstrap_external>", line 1256, in find_spec
  File "<frozen importlib._bootstrap_external>", line 60, in _path_join
  File "<frozen importlib._bootstrap_external>", line 60, in <listcomp>
KeyboardInterrupt
[05/Apr/2018 20:54:37] "GET / HTTP/1.1" 200 2196
[05/Apr/2018 20:54:38] "GET /assets/font-awesome/fonts/fontawesome-webfont.woff?v=4.1.0 HTTP/1.1" 404 124
[05/Apr/2018 20:54:50] "GET / HTTP/1.1" 200 2196
[05/Apr/2018 20:54:51] "GET /assets/css/bootstrap.css HTTP/1.1" 404 98
[05/Apr/2018 20:54:51] "GET /assets/css/style.css HTTP/1.1" 404 94
[05/Apr/2018 20:54:51] "GET /assets/js/gritter/css/jquery.gritter.css HTTP/1.1" 404 114
[05/Apr/2018 20:54:51] "GET /assets/css/style-responsive.css HTTP/1.1" 404 105
[05/Apr/2018 20:54:51] "GET /assets/font-awesome/css/font-awesome.css HTTP/1.1" 404 114
[05/Apr/2018 20:54:51] "GET /assets/lineicons/style.css HTTP/1.1" 404 100
[05/Apr/2018 20:54:51] "GET /assets/js/jquery.js HTTP/1.1" 404 93
[05/Apr/2018 20:54:51] "GET /assets/js/bootstrap.min.js HTTP/1.1" 404 100
[05/Apr/2018 20:54:51] "GET /assets/js/jquery.backstretch.min.js HTTP/1.1" 404 109
[05/Apr/2018 20:54:51] "GET /assets/img/favicon.jpg HTTP/1.1" 404 96
[05/Apr/2018 20:54:54] "GET / HTTP/1.1" 200 2196
[05/Apr/2018 20:54:54] "GET /assets/css/bootstrap.css HTTP/1.1" 404 98
[05/Apr/2018 20:54:54] "GET /assets/font-awesome/css/font-awesome.css HTTP/1.1" 404 114
[05/Apr/2018 20:54:54] "GET /assets/css/style.css HTTP/1.1" 404 94
[05/Apr/2018 20:54:54] "GET /assets/css/style-responsive.css HTTP/1.1" 404 105
[05/Apr/2018 20:54:54] "GET /assets/js/gritter/css/jquery.gritter.css HTTP/1.1" 404 114
[05/Apr/2018 20:54:54] "GET /assets/lineicons/style.css HTTP/1.1" 404 100
[05/Apr/2018 20:54:54] "GET /assets/js/jquery.js HTTP/1.1" 404 93
[05/Apr/2018 20:54:54] "GET /assets/js/jquery.backstretch.min.js HTTP/1.1" 404 109
[05/Apr/2018 20:54:54] "GET /assets/js/bootstrap.min.js HTTP/1.1" 404 100
[05/Apr/2018 20:54:54] "GET /assets/js/jquery.backstretch.min.js HTTP/1.1" 404 109
[05/Apr/2018 20:54:55] "GET /assets/img/favicon.jpg HTTP/1.1" 404 96
[05/Apr/2018 20:57:04] "GET / HTTP/1.1" 200 2196
[05/Apr/2018 20:57:04] "GET /assets/css/bootstrap.css HTTP/1.1" 404 98
[05/Apr/2018 20:57:04] "GET /assets/font-awesome/css/font-awesome.css HTTP/1.1" 404 114
[05/Apr/2018 20:57:04] "GET /assets/css/style.css HTTP/1.1" 404 94
[05/Apr/2018 20:57:04] "GET /assets/css/style-responsive.css HTTP/1.1" 404 105
[05/Apr/2018 20:57:04] "GET /assets/js/gritter/css/jquery.gritter.css HTTP/1.1" 404 114
[05/Apr/2018 20:57:04] "GET /assets/lineicons/style.css HTTP/1.1" 404 100
[05/Apr/2018 20:57:04] "GET /assets/js/jquery.js HTTP/1.1" 404 93
[05/Apr/2018 20:57:04] "GET /assets/js/bootstrap.min.js HTTP/1.1" 404 100
[05/Apr/2018 20:57:04] "GET /assets/js/jquery.backstretch.min.js HTTP/1.1" 404 109
[05/Apr/2018 20:57:04] "GET /assets/js/jquery.backstretch.min.js HTTP/1.1" 404 109
[05/Apr/2018 20:57:04] "GET /assets/img/favicon.jpg HTTP/1.1" 404 96
[05/Apr/2018 20:57:04] "GET /favicon.ico HTTP/1.1" 404 85
[05/Apr/2018 20:57:08] "GET / HTTP/1.1" 200 2196
[05/Apr/2018 20:57:09] "GET /assets/lineicons/style.css HTTP/1.1" 404 100
[05/Apr/2018 20:57:09] "GET /assets/js/gritter/css/jquery.gritter.css HTTP/1.1" 404 114
[05/Apr/2018 20:57:09] "GET /assets/css/style-responsive.css HTTP/1.1" 404 105
[05/Apr/2018 20:57:09] "GET /assets/css/style.css HTTP/1.1" 404 94
[05/Apr/2018 20:57:10] "GET /assets/css/bootstrap.css HTTP/1.1" 404 98
[05/Apr/2018 20:57:10] "GET /assets/font-awesome/css/font-awesome.css HTTP/1.1" 404 114
[05/Apr/2018 20:57:10] "GET /assets/js/bootstrap.min.js HTTP/1.1" 404 100
[05/Apr/2018 20:57:10] "GET /assets/js/jquery.js HTTP/1.1" 404 93
[05/Apr/2018 20:57:10] "GET /assets/js/jquery.backstretch.min.js HTTP/1.1" 404 109
[05/Apr/2018 20:57:10] "GET /assets/js/bootstrap.min.js HTTP/1.1" 404 100
[05/Apr/2018 20:57:10] "GET /assets/js/jquery.backstretch.min.js HTTP/1.1" 404 109
[05/Apr/2018 20:57:10] "GET /assets/img/favicon.jpg HTTP/1.1" 404 96
[05/Apr/2018 20:57:25] "GET / HTTP/1.1" 200 2196
[05/Apr/2018 20:57:25] "GET /assets/css/bootstrap.css HTTP/1.1" 404 98
[05/Apr/2018 20:57:25] "GET /assets/font-awesome/css/font-awesome.css HTTP/1.1" 404 114
[05/Apr/2018 20:57:25] "GET /assets/css/style.css HTTP/1.1" 404 94
[05/Apr/2018 20:57:25] "GET /assets/css/style-responsive.css HTTP/1.1" 404 105
[05/Apr/2018 20:57:25] "GET /assets/js/gritter/css/jquery.gritter.css HTTP/1.1" 404 114
[05/Apr/2018 20:57:25] "GET /assets/lineicons/style.css HTTP/1.1" 404 100
[05/Apr/2018 20:57:25] "GET /assets/js/jquery.js HTTP/1.1" 404 93
[05/Apr/2018 20:57:25] "GET /assets/js/bootstrap.min.js HTTP/1.1" 404 100
[05/Apr/2018 20:57:25] "GET /assets/js/jquery.backstretch.min.js HTTP/1.1" 404 109
[05/Apr/2018 20:57:25] "GET /assets/img/favicon.jpg HTTP/1.1" 404 96
[05/Apr/2018 20:57:31] "GET / HTTP/1.1" 200 2196
[05/Apr/2018 20:57:31] "GET /assets/css/style.css HTTP/1.1" 404 94
[05/Apr/2018 20:57:31] "GET /assets/font-awesome/css/font-awesome.css HTTP/1.1" 404 114
[05/Apr/2018 20:57:31] "GET /assets/css/bootstrap.css HTTP/1.1" 404 98
[05/Apr/2018 20:57:31] "GET /assets/css/style-responsive.css HTTP/1.1" 404 105
[05/Apr/2018 20:57:31] "GET /assets/js/gritter/css/jquery.gritter.css HTTP/1.1" 404 114
[05/Apr/2018 20:57:31] "GET /assets/lineicons/style.css HTTP/1.1" 404 100
[05/Apr/2018 20:57:31] "GET /assets/js/jquery.js HTTP/1.1" 404 93
[05/Apr/2018 20:57:31] "GET /assets/js/bootstrap.min.js HTTP/1.1" 404 100
[05/Apr/2018 20:57:31] "GET /assets/js/jquery.backstretch.min.js HTTP/1.1" 404 109
[05/Apr/2018 20:57:31] "GET /assets/img/favicon.jpg HTTP/1.1" 404 96
[05/Apr/2018 20:58:42] "GET / HTTP/1.1" 200 2196
[05/Apr/2018 20:58:55] "GET / HTTP/1.1" 200 2196
[05/Apr/2018 20:58:56] "GET /assets/font-awesome/css/font-awesome.css HTTP/1.1" 404 114
[05/Apr/2018 20:58:56] "GET /assets/css/bootstrap.css HTTP/1.1" 404 98
[05/Apr/2018 20:58:56] "GET /assets/css/style.css HTTP/1.1" 404 94
[05/Apr/2018 20:58:56] "GET /assets/css/style-responsive.css HTTP/1.1" 404 105
[05/Apr/2018 20:58:56] "GET /assets/lineicons/style.css HTTP/1.1" 404 100
[05/Apr/2018 20:58:56] "GET /assets/js/gritter/css/jquery.gritter.css HTTP/1.1" 404 114
[05/Apr/2018 20:58:56] "GET /assets/js/jquery.js HTTP/1.1" 404 93
[05/Apr/2018 20:58:56] "GET /assets/js/bootstrap.min.js HTTP/1.1" 404 100
[05/Apr/2018 20:58:56] "GET /assets/js/jquery.backstretch.min.js HTTP/1.1" 404 109
[05/Apr/2018 20:58:56] "GET /assets/js/bootstrap.min.js HTTP/1.1" 404 100
[05/Apr/2018 20:58:56] "GET /assets/js/jquery.backstretch.min.js HTTP/1.1" 404 109
[05/Apr/2018 20:58:56] "GET /assets/img/favicon.jpg HTTP/1.1" 404 96
[05/Apr/2018 20:58:57] "GET / HTTP/1.1" 200 2196
[05/Apr/2018 20:58:58] "GET /assets/css/bootstrap.css HTTP/1.1" 404 98
[05/Apr/2018 20:58:58] "GET /assets/font-awesome/css/font-awesome.css HTTP/1.1" 404 114
[05/Apr/2018 20:58:58] "GET /assets/css/style.css HTTP/1.1" 404 94
[05/Apr/2018 20:58:58] "GET /assets/css/style-responsive.css HTTP/1.1" 404 105
[05/Apr/2018 20:58:58] "GET /assets/js/gritter/css/jquery.gritter.css HTTP/1.1" 404 114
[05/Apr/2018 20:58:58] "GET /assets/lineicons/style.css HTTP/1.1" 404 100
[05/Apr/2018 20:58:58] "GET /assets/js/jquery.js HTTP/1.1" 404 93
[05/Apr/2018 20:58:58] "GET /assets/js/jquery.backstretch.min.js HTTP/1.1" 404 109
[05/Apr/2018 20:58:58] "GET /assets/js/bootstrap.min.js HTTP/1.1" 404 100
[05/Apr/2018 20:58:58] "GET /assets/js/jquery.backstretch.min.js HTTP/1.1" 404 109
[05/Apr/2018 20:59:29] "GET / HTTP/1.1" 200 2196
[05/Apr/2018 20:59:29] "GET /assets/css/bootstrap.css HTTP/1.1" 404 98
[05/Apr/2018 20:59:29] "GET /assets/lineicons/style.css HTTP/1.1" 404 100
[05/Apr/2018 20:59:29] "GET /assets/font-awesome/css/font-awesome.css HTTP/1.1" 404 114
[05/Apr/2018 20:59:29] "GET /assets/js/gritter/css/jquery.gritter.css HTTP/1.1" 404 114
[05/Apr/2018 20:59:29] "GET /assets/css/style.css HTTP/1.1" 404 94
[05/Apr/2018 20:59:29] "GET /assets/css/style-responsive.css HTTP/1.1" 404 105
[05/Apr/2018 20:59:29] "GET /assets/js/jquery.js HTTP/1.1" 404 93
[05/Apr/2018 20:59:29] "GET /assets/js/bootstrap.min.js HTTP/1.1" 404 100
[05/Apr/2018 20:59:29] "GET /assets/js/jquery.backstretch.min.js HTTP/1.1" 404 109
[05/Apr/2018 20:59:30] "GET /assets/img/favicon.jpg HTTP/1.1" 404 96
[05/Apr/2018 21:01:48] "GET / HTTP/1.1" 200 2196
[05/Apr/2018 21:01:48] "GET /assets/css/bootstrap.css HTTP/1.1" 404 98
[05/Apr/2018 21:01:48] "GET /assets/css/style.css HTTP/1.1" 404 94
[05/Apr/2018 21:01:48] "GET /assets/font-awesome/css/font-awesome.css HTTP/1.1" 404 114
[05/Apr/2018 21:01:48] "GET /assets/css/style-responsive.css HTTP/1.1" 404 105
[05/Apr/2018 21:01:48] "GET /assets/js/gritter/css/jquery.gritter.css HTTP/1.1" 404 114
[05/Apr/2018 21:01:48] "GET /assets/lineicons/style.css HTTP/1.1" 404 100
[05/Apr/2018 21:01:48] "GET /assets/js/jquery.js HTTP/1.1" 404 93
[05/Apr/2018 21:01:48] "GET /assets/js/bootstrap.min.js HTTP/1.1" 404 100
[05/Apr/2018 21:01:48] "GET /assets/js/jquery.backstretch.min.js HTTP/1.1" 404 109
[05/Apr/2018 21:01:48] "GET /assets/js/jquery.backstretch.min.js HTTP/1.1" 404 109
[05/Apr/2018 21:01:48] "GET /assets/img/favicon.jpg HTTP/1.1" 404 96
